…
Data
----

The unvotes package provides three datasets we can work with: `un_roll_calls`, `un_roll_call_issues`, and `un_votes`. Each of these datasets contains a variable called `rcid`, the roll call id, which can be used as a unique identifier to join them with each other.

-   The `un_votes` dataset provides information on the voting history of the United Nations General Assembly. It contains one row for each country-vote pair.

``` r
un_votes
```

    ## # A tibble: 738,764 x 4
    ##     rcid country                  country_code vote 
    ##    <int> <chr>                    <chr>        <fct>
    ##  1     3 United States of America US           yes  
    ##  2     3 Canada                   CA           no   
    ##  3     3 Cuba                     CU           yes  
    ##  4     3 Haiti                    HT           yes  
    ##  5     3 Dominican Republic       DO           yes  
    ##  6     3 Mexico                   MX           yes  
    ##  7     3 Guatemala                GT           yes  
    ##  8     3 Honduras                 HN           yes  
    ##  9     3 El Salvador              SV           yes  
    ## 10     3 Nicaragua                NI           yes  
    ## # … with 738,754 more rows

-   The `un_roll_calls` dataset contains information on each roll call vote of the United Nations General Assembly.

``` r
un_roll_calls
```

    ## # A tibble: 5,429 x 9
    ##     rcid session importantvote date       unres  amend  para short  descr  
    ##    <int>   <dbl>         <dbl> <date>     <chr>  <dbl> <dbl> <chr>  <chr>  
    ##  1     3       1             0 1946-01-01 R/1/66     1     0 AMEND… TO ADO…
    ##  2     4       1             0 1946-01-02 R/1/79     0     0 SECUR… TO ADO…
    ##  3     5       1             0 1946-01-04 R/1/98     0     0 VOTIN… "TO AD…
    ##  4     6       1             0 1946-01-04 R/1/1…     0     0 DECLA… TO ADO…
    ##  5     7       1             0 1946-01-02 R/1/2…     1     0 GENER… "TO AD…
    ##  6     8       1             0 1946-01-05 R/1/2…     1     0 ECOSO… TO ADO…
    ##  7     9       1             0 1946-02-05 R/1/3…     0     0 POST-… TO OPE…
    ##  8    10       1             0 1946-02-05 R/1/3…     1     1 U.N. … "TO AD…
    ##  9    11       1             0 1946-02-05 R/1/3…     0     0 TRUST… TO ADO…
    ## 10    12       1             0 1946-02-06 R/1/3…     1     1 COUNC… TO ADO…
    ## # … with 5,419 more rows

-   The `un_roll_call_issues` dataset contains (topic) classifications of roll call votes of the United Nations General Assembly. Many votes had no topic, and some have more than one.

``` r
un_roll_call_issues
```

    ## # A tibble: 5,281 x 3
    ##     rcid short_name issue               
    ##    <int> <chr>      <chr>               
    ##  1  3372 me         Palestinian conflict
    ##  2  3658 me         Palestinian conflict
    ##  3  3692 me         Palestinian conflict
    ##  4  2901 me         Palestinian conflict
    ##  5  3020 me         Palestinian conflict
    ##  6  3217 me         Palestinian conflict
    ##  7  3298 me         Palestinian conflict
    ##  8  3429 me         Palestinian conflict
    ##  9  3558 me         Palestinian conflict
    ## 10  3625 me         Palestinian conflict
    ## # … with 5,271 more rows
…
