…
rowSums(seqtab) %>%
  enframe(name="sample", value="tabled") ->
  tabled
track %<>% full_join(tabled, by=c("sample"))

rowSums(seqtab.nochim) %>%
  enframe(name="sample", value="nonchim") ->
  nonchim
track %<>% full_join(nonchim, by=c("sample"))

track
```

    ## # A tibble: 62 x 7
    ##    sample      input filtered denoised merged tabled nonchim
    ##    <chr>       <dbl>    <dbl>    <int>  <int>  <dbl>   <dbl>
    ##  1 BAQ1370.1.3     1        0       NA     NA     NA      NA
    ##  2 BAQ1552.1.1     1        1        1      1      1       1
    ##  3 BAQ2420.1.1   721      672      414    178    178     178
    ##  4 BAQ2420.1.2   640      601      428    184    184     184
    ##  5 BAQ2420.1.3   656      633      478    223    223     223
    ##  6 BAQ2420.2     611      567      466    176    176     176
    ##  7 BAQ2420.3     647      607      518    258    258     258
    ##  8 BAQ2462.1     869      805      719    396    396     396
    ##  9 BAQ2462.2     598      547      464    323    323     323
    ## 10 BAQ2462.3     467      434      349    159    159     159
    ## # … with 52 more rows
…
